certifi==2018.4.16
chardet==3.0.4
colorama==0.3.9
crayons==0.1.2
crypto==1.4.1
cryptosteganography==0.2.1
Django==1.11
idna==2.6
Naked==0.1.31
piexif==1.0.13
Pillow==5.1.0
pycrypto==2.6.1
pycryptodomex==3.6.1
pytz==2018.4
PyYAML==3.12
requests==2.18.4
shellescape==3.4.1
Stegano==0.8.5
urllib3==1.22
